<?xml version="1.0" encoding="utf-8"?>
<!-- Generator: Adobe Illustrator 17.1.0, SVG Export Plug-In . SVG Version: 6.00 Build 0)  -->
<!DOCTYPE svg PUBLIC "-//W3C//DTD SVG 1.1//EN" "http://www.w3.org/Graphics/SVG/1.1/DTD/svg11.dtd">
<svg version="1.1" id="Layer_1" xmlns="http://www.w3.org/2000/svg" xmlns:xlink="http://www.w3.org/1999/xlink" x="0px" y="0px"
	 viewBox="0 0 286 146.6" enable-background="new 0 0 286 146.6" xml:space="preserve">
<g>
	<g>
		<path fill="#CC0000" d="M253.2,50.9c-1.8,2-2.9,4.4-3.3,6.9l9.9,0.5L253.2,50.9z"/>
	</g>
	<g>
		<path fill="#CC0000" d="M272.3,51.8l-7.4,6.7l9.9,0.5C274.8,56.5,273.9,54,272.3,51.8z"/>
	</g>
	<g>
		<path fill="#CC0000" d="M261.5,56.8l0.5-9.9c-2.5,0.1-5,0.9-7.2,2.5L261.5,56.8z"/>
	</g>
	<g>
		<path fill="#CC0000" d="M271.5,68c1.8-2,2.9-4.4,3.3-6.9l-9.9-0.5L271.5,68z"/>
	</g>
	<g>
		<path fill="#CC0000" d="M269.9,69.4l-6.4-7.1l-0.2,9.6C265.6,71.7,268,70.9,269.9,69.4z"/>
	</g>
	<g>
		<path fill="#CC0000" d="M252,66.4l7.5-6l-9.7-0.5C249.9,62.1,250.7,64.4,252,66.4z"/>
	</g>
	<g>
		<path fill="#CC0000" d="M263.5,56.9l7.4-6.7c-2-1.8-4.4-2.9-6.9-3.3L263.5,56.9z"/>
	</g>
	<g>
		<path fill="#CC0000" d="M275.2,47.8c-6.4-7.1-17.3-7.6-24.4-1.2c-6.6,5.9-7.5,15.7-2.5,22.8l2.2-1.7c-4.1-5.9-3.2-14,2.2-19
			c5.9-5.4,15.1-4.9,20.5,1.1c5.4,5.9,4.9,15.1-1.1,20.5c-2.5,2.3-5.7,3.5-8.8,3.7l-0.1,2.8c3.9-0.2,7.7-1.6,10.8-4.4
			C281,65.9,281.6,54.9,275.2,47.8z"/>
	</g>
	<g>
		<path fill="#306bac" d="M98.8,146.6c0,0,2.9-0.9,7.9-2.4c5.1-1.5,12.3-3.6,21-6.1c4.4-1.2,9.1-2.6,14.1-3.9
			c5-1.4,10.3-2.8,15.8-4.3c5.5-1.4,11.1-3,16.9-4.5c5.8-1.5,11.6-3,17.4-4.5c5.9-1.5,11.7-2.9,17.5-4.4c5.8-1.5,11.5-2.8,17-4.1
			c5.5-1.3,10.8-2.6,15.9-3.7c5.1-1.2,9.8-2.3,14.3-3.3c8.8-2,16.2-3.6,21.4-4.6c5.2-1.1,8.1-1.7,8.1-1.7s-2.9,0.9-7.9,2.4
			c-5.1,1.5-12.3,3.6-21,6.1c-4.4,1.2-9.1,2.6-14.1,3.9c-5,1.4-10.3,2.8-15.8,4.3c-5.5,1.4-11.1,3-16.9,4.4
			c-5.8,1.5-11.6,3-17.4,4.5c-5.9,1.5-11.7,2.9-17.5,4.4c-5.8,1.5-11.5,2.8-17,4.1c-5.5,1.3-10.8,2.6-15.9,3.7
			c-5.1,1.2-9.8,2.3-14.3,3.3c-8.8,2-16.2,3.6-21.4,4.6C101.7,146,98.8,146.6,98.8,146.6z"/>
	</g>
	<g>
		<g>
			<g>
				<g>
					<path fill="#306bac" d="M40.9,61.7c-1.4,1.8-3,3.4-4.8,4.8c-1.8,1.4-3.8,2.6-5.8,3.7c-2,1-4.1,1.9-6.3,2.5
						c-2.1,0.6-4.2,1-6.3,1.2c-2.3,0.2-4.4,0.2-6.4-0.2c-2-0.3-3.9-1-5.5-1.9c-1.6-0.9-2.9-2.2-3.9-3.8c-1-1.6-1.7-3.5-1.9-5.8
						c-0.2-1.9,0-3.8,0.5-5.7c0.5-1.8,1.5-3.5,2.8-5c1.3-1.5,3.1-2.8,5.3-3.9c2.2-1.1,4.9-1.8,8.1-2.2c-2.1,0.2-4,0.1-5.6-0.4
						c-1.6-0.5-3-1.1-4.1-2.1c-1.1-0.9-2-2-2.7-3.4c-0.6-1.3-1-2.7-1.2-4.3c-0.1-1.4,0-2.8,0.4-4c0.4-1.2,1-2.4,1.7-3.4
						c0.8-1,1.7-2,2.8-2.8c1.1-0.8,2.3-1.5,3.7-2.1c1.3-0.6,2.8-1.1,4.3-1.5c1.5-0.4,3-0.6,4.6-0.8c2.2-0.2,4.5-0.2,6.6,0.1
						c2.2,0.3,4.2,0.8,5.9,1.7c1.8,0.8,3.2,1.9,4.4,3.3c1.2,1.4,1.8,3,2,5c0.1,0.7-0.1,1.4-0.5,2.1c-0.4,0.7-0.9,1.4-1.5,2
						c-0.6,0.6-1.2,1.1-1.9,1.5c-0.7,0.4-1.3,0.6-1.7,0.6c-0.4,0-0.6-0.3-0.7-1c-0.1-0.6,0-1.5,0.1-2.5c0.1-1,0.3-2.3,0.7-3.8
						c-0.6-0.4-1.4-0.7-2.4-1c-1-0.3-2.2-0.6-3.5-0.8c-1.3-0.2-2.6-0.4-4.1-0.5c-1.4-0.1-2.8-0.1-4.2,0.1c-1.3,0.1-2.5,0.4-3.6,0.7
						c-1.1,0.3-2.1,0.8-3,1.4c-0.8,0.6-1.5,1.4-1.9,2.3c-0.4,0.9-0.6,2-0.5,3.3c0.1,1,0.4,1.9,0.8,2.6c0.4,0.7,1,1.2,1.7,1.7
						c0.7,0.4,1.4,0.8,2.3,1c0.8,0.2,1.7,0.4,2.6,0.6c0.9,0.2,1.8,0.3,2.6,0.5c0.9,0.1,1.6,0.3,2.4,0.6c0.7,0.2,1.3,0.5,1.9,0.9
						c0.5,0.4,0.9,0.9,1.1,1.5c0.1,0.4,0.2,0.8,0.2,1.2c0.1,0.4,0.1,0.8,0.2,1.2c0.1,1.1,0,1.9-0.4,2.4c-0.4,0.5-1.1,0.8-2.3,1
						c-0.5,0-1.1,0.1-1.9,0.1c-0.7,0-1.4,0.1-2.1,0.1c-1.5,0.1-3,0.5-4.4,1c-1.4,0.5-2.7,1.2-3.8,2.1c-1.1,0.9-1.9,1.9-2.6,3.1
						c-0.6,1.2-0.8,2.6-0.7,4.1c0.1,1.4,0.5,2.6,1,3.5c0.5,0.9,1.1,1.6,1.9,2.1c0.8,0.5,1.7,0.8,2.7,1c1,0.2,2.1,0.2,3.2,0.1
						c1.4-0.1,2.8-0.4,4.2-0.8c1.5-0.4,2.9-0.9,4.4-1.5c1.4-0.6,2.8-1.3,4.2-2.1c1.3-0.8,2.6-1.6,3.7-2.4s2.1-1.7,3-2.6
						c0.8-0.9,1.5-1.8,1.9-2.7L40.9,61.7z"/>
				</g>
				<g>
					<path fill="#306bac" d="M68.1,59.3c-0.4,0.7-0.9,1.4-1.6,2.3c-0.7,0.9-1.4,1.8-2.3,2.6c-0.8,0.8-1.8,1.6-2.8,2.2
						c-1,0.6-2,1-3.1,1.1c-1.3,0.1-2.4-0.2-3.3-0.9c-0.9-0.7-1.8-1.8-2.5-3.3c-0.4,0.6-0.9,1.2-1.5,1.8c-0.6,0.6-1.3,1.2-2.1,1.7
						c-0.8,0.5-1.5,1-2.4,1.3c-0.8,0.4-1.7,0.6-2.5,0.7c-0.9,0.1-1.8,0-2.7-0.3c-0.9-0.3-1.7-0.8-2.5-1.4c-0.7-0.6-1.4-1.4-1.9-2.4
						c-0.5-1-0.8-2.1-0.9-3.3c-0.1-1.4-0.1-2.9,0.2-4.5c0.3-1.5,0.7-3.1,1.2-4.6c0.6-1.5,1.3-3,2.1-4.3c0.8-1.4,1.8-2.6,2.9-3.7
						c1.1-1.1,2.2-1.9,3.4-2.6c1.2-0.7,2.5-1.1,3.8-1.2c0.4,0,0.8,0,1.1,0.2c0.3,0.1,0.5,0.3,0.7,0.5c0.2,0.2,0.4,0.4,0.5,0.6
						c0.2,0.2,0.4,0.3,0.6,0.4c0.2,0.1,0.5,0.1,0.7,0.1c0.2,0,0.5,0,0.7,0c0.2,0,0.4,0,0.6-0.1c0.2,0,0.4-0.1,0.6-0.1
						c0.3,0,0.6,0,0.8,0c0.3,0,0.5,0.1,0.7,0.3c0.2,0.2,0.4,0.4,0.5,0.8c0.1,0.3,0.2,0.8,0.3,1.4c0.1,0.9,0.1,1.9,0,3.1
						c-0.1,1.1-0.2,2.3-0.3,3.5c-0.1,1.2-0.2,2.4-0.3,3.6C57,55.8,57,57,57.1,58c0.1,0.9,0.2,1.6,0.4,2.1c0.2,0.5,0.6,0.7,1.1,0.7
						c0.4,0,0.8-0.2,1.2-0.4c0.4-0.2,0.8-0.5,1.3-0.9c0.4-0.4,0.8-0.8,1.2-1.2c0.4-0.5,0.8-0.9,1.2-1.4c0.8-1.1,1.7-2.4,2.5-3.8
						L68.1,59.3z M43.3,59.3c0,0.5,0.1,0.9,0.2,1.4c0.1,0.4,0.3,0.8,0.5,1.2c0.2,0.3,0.5,0.6,0.8,0.8c0.3,0.2,0.7,0.3,1.1,0.2
						c0.7-0.1,1.3-0.4,1.8-1.1c0.5-0.7,0.9-1.5,1.3-2.4c0.3-0.9,0.6-1.8,0.8-2.8c0.2-0.9,0.3-1.7,0.3-2.3l0.9-8.6
						c-0.8,0.1-1.5,0.3-2.2,0.8c-0.7,0.5-1.4,1.1-2,1.8c-0.6,0.7-1.1,1.6-1.6,2.5c-0.5,0.9-0.9,1.9-1.2,2.8c-0.3,1-0.5,2-0.7,2.9
						C43.3,57.6,43.3,58.5,43.3,59.3z"/>
				</g>
				<g>
					<path fill="#306bac" d="M63.4,55.7c1-1,1.8-1.9,2.4-2.5c0.6-0.7,1.1-1.3,1.6-1.8c0.4-0.6,0.8-1.1,1.2-1.7
						c0.3-0.6,0.7-1.2,1.2-2c0.5-0.8,1-1.7,1.7-2.8c0.7-1.1,1.5-2.5,2.6-4.1c0.2-0.4,0.5-0.7,0.7-1.1c0.3-0.4,0.6-0.7,0.9-1
						c0.3-0.3,0.7-0.5,1.2-0.7c0.4-0.2,0.9-0.3,1.5-0.4c0.9-0.1,1.6-0.1,2.2,0.1c0.5,0.2,0.9,0.4,1.2,0.6c0.3,0.3,0.4,0.6,0.5,0.9
						c0.1,0.3,0.1,0.6,0.1,0.8c0,0.5-0.1,1-0.4,1.6c-0.3,0.6-0.7,1.2-1.1,1.7c-0.4,0.6-0.8,1.1-1.1,1.5c-0.4,0.5-0.5,0.8-0.6,1
						c0.1,0.6,0.2,1.1,0.3,1.6c0.1,0.5,0.3,0.9,0.5,1.4c0.2,0.5,0.4,0.9,0.6,1.4c0.2,0.5,0.4,1.1,0.6,1.8c0.2,0.7,0.4,1.5,0.6,2.3
						c0.2,0.9,0.3,1.9,0.4,3.2c0.6-0.5,1.3-1,2.1-1.5c0.8-0.4,1.5-0.9,2.4-1.4c0.8-0.5,1.7-1,2.5-1.6c0.9-0.6,1.7-1.3,2.6-2l0.6,6.4
						c-1.1,1-2.4,2-3.9,3c-1.5,1-3.1,1.8-4.7,2.6c-1.7,0.8-3.3,1.4-5.1,1.9c-1.7,0.5-3.4,0.9-4.9,1c-1.1,0.1-2.2,0.1-3.2,0
						c-1-0.1-1.9-0.4-2.7-0.7c-0.8-0.4-1.4-0.9-2-1.6c-0.5-0.7-0.9-1.5-1.1-2.6c-0.3,0.1-0.5,0.1-0.8,0.2c-0.3,0-0.5,0.1-0.8,0.1
						c-0.3,0-0.6,0-0.9,0.1c-0.3,0-0.5,0-0.7-0.2c-0.2-0.1-0.4-0.3-0.5-0.6c-0.1-0.3-0.2-0.7-0.3-1.2c0-0.5,0-0.9,0.2-1.3
						c0.2-0.4,0.4-0.8,0.7-1.1c0.3-0.3,0.6-0.6,0.8-0.9C63,56,63.2,55.8,63.4,55.7z M67.4,59c0.2,0,0.5,0.1,0.8,0.4
						c0.3,0.3,0.7,0.5,1.1,0.9c0.4,0.3,0.8,0.6,1.4,0.8c0.5,0.2,1.1,0.3,1.7,0.3c0.7-0.1,1.4-0.3,1.8-0.6c0.5-0.3,0.8-0.7,1.1-1.1
						c0.2-0.4,0.4-0.9,0.5-1.5c0.1-0.6,0.1-1.1,0-1.7c0-0.5-0.1-1-0.3-1.6c-0.1-0.5-0.3-1-0.4-1.5c-0.2-0.5-0.3-0.9-0.5-1.3
						c-0.2-0.4-0.3-0.8-0.4-1.1L67.4,59z"/>
				</g>
				<g>
					<path fill="#306bac" d="M113.4,55.5c-1.7,1.2-3.3,2.3-4.6,3.3c-1.4,0.9-2.6,1.7-3.6,2.4c-1.1,0.6-2,1.1-2.9,1.5
						c-0.8,0.3-1.6,0.6-2.3,0.6c-1.5,0.1-2.8-0.2-4-1c-1.2-0.8-2.2-2-3.1-3.5c-0.9-1.6-1.7-3.5-2.3-5.9c-0.6-2.3-1-5-1.3-7.9
						c-0.1-1.1-0.2-2.4-0.2-3.7c0-1.3,0-2.6,0-3.9c-0.6,0-1-0.1-1.4-0.1c-0.3,0-0.7-0.1-1-0.1c-0.4,0-0.8-0.1-1.4-0.1
						c-0.6,0-1.4,0-2.4-0.1c-0.5,0-0.8-0.1-1.1-0.2c-0.3-0.1-0.5-0.3-0.6-0.5C81.1,36.2,81,36,81,35.7c0-0.2-0.1-0.4-0.1-0.6
						c0-0.4,0.1-0.7,0.5-0.9c0.4-0.2,0.8-0.4,1.4-0.6c0.6-0.2,1.2-0.3,1.9-0.3c0.7-0.1,1.4-0.1,2-0.2c0.6,0,1.2-0.1,1.7-0.1
						c0.5,0,0.9-0.1,1-0.1c0.3-2.6,0.7-5.2,1.2-7.7c0.6-2.5,1.2-4.7,2.1-6.7c0.8-2,1.7-3.6,2.8-4.8c1.1-1.2,2.2-1.9,3.5-2.1
						c0.8-0.1,1.6,0.1,2.3,0.5c0.7,0.4,1.4,0.9,1.9,1.7c0.6,0.7,1,1.6,1.4,2.6c0.4,1,0.6,2.1,0.7,3.2c0.1,0.9,0,1.9-0.1,3
						c-0.2,1.1-0.4,2.2-0.8,3.3c-0.4,1.1-0.8,2.3-1.3,3.4c-0.5,1.2-1.1,2.3-1.7,3.5c0.2,0,0.5,0,0.9,0c0.4,0,0.9-0.1,1.4-0.1
						c0.5,0,1.1-0.1,1.7-0.1c0.6,0,1.2-0.1,1.8-0.1c0.6,0,1.1-0.1,1.6-0.1c0.5,0,0.9,0,1.2-0.1c0.4,0,0.7,0.1,0.9,0.5
						c0.2,0.3,0.3,0.8,0.4,1.4c0.1,0.7-0.1,1.2-0.4,1.7c-0.3,0.5-0.7,0.7-1.2,0.8l-11,1.1c-0.5,0.8-1,1.6-1.5,2.4
						c-0.5,0.8-1,1.5-1.4,2.1c0,1.2,0.1,2.4,0.1,3.5c0,0.5,0.1,1,0.1,1.5c0,0.5,0.1,1.1,0.1,1.6c0,0.5,0.1,1,0.1,1.5
						c0,0.5,0.1,0.9,0.1,1.3c0.1,1,0.3,1.9,0.5,2.6c0.3,0.7,0.6,1.2,1,1.7c0.4,0.4,0.9,0.7,1.4,0.8c0.5,0.1,1.1,0.2,1.8,0.1
						c0.4,0,0.9-0.2,1.5-0.4c0.6-0.2,1.2-0.6,1.9-1c0.7-0.4,1.4-0.9,2.2-1.4c0.7-0.5,1.5-1.1,2.2-1.7c0.7-0.6,1.4-1.3,2.1-1.9
						c0.7-0.7,1.2-1.3,1.7-2L113.4,55.5z M100.8,20.1c0-0.2-0.1-0.4-0.1-0.7c-0.1-0.3-0.1-0.5-0.3-0.7c-0.1-0.2-0.3-0.4-0.5-0.5
						C99.7,18,99.4,18,99.1,18c-0.5,0-1,0.5-1.4,1.5c-0.4,0.9-0.8,2.1-1.1,3.5c-0.3,1.4-0.6,3-0.9,4.6c-0.3,1.7-0.5,3.3-0.7,4.9
						c0.3,0,0.6,0,0.9,0c0.3,0,0.6,0,0.9,0c0.5-1,1-2.1,1.5-3.3c0.5-1.2,1-2.4,1.4-3.5c0.4-1.1,0.7-2.2,0.9-3.2
						C100.8,21.5,100.8,20.7,100.8,20.1z"/>
				</g>
				<g>
					<path fill="#306bac" d="M122,61.2c-1.8,0.2-3.3,0-4.7-0.5c-1.4-0.5-2.6-1.3-3.6-2.3c-1-1-1.8-2.2-2.4-3.6s-1-2.9-1.1-4.4
						c-0.1-1.1-0.1-2.3,0-3.5c0.1-1.2,0.3-2.4,0.7-3.6c0.3-1.2,0.8-2.4,1.3-3.5c0.6-1.1,1.2-2.1,2-3c0.8-0.9,1.7-1.6,2.7-2.2
						c1-0.6,2.2-0.9,3.5-1c1.1-0.1,2.1,0,3.1,0.2c1,0.2,1.8,0.6,2.5,1.2s1.3,1.2,1.8,2c0.5,0.8,0.7,1.6,0.8,2.6
						c0.1,0.6,0,1.3-0.1,1.9c-0.1,0.6-0.3,1.2-0.6,1.8c-0.3,0.5-0.7,1-1.1,1.3c-0.4,0.4-1,0.6-1.6,0.6c-0.9,0.1-1.5-0.1-1.8-0.5
						c-0.3-0.5-0.5-1.1-0.6-1.9c0-0.3-0.1-0.7-0.1-1.1c0-0.4,0-0.7-0.1-1c0-0.5-0.1-0.8-0.3-1.1c-0.1-0.3-0.4-0.4-0.7-0.4
						c-0.8,0.1-1.4,0.3-2,0.7c-0.5,0.4-0.9,1-1.3,1.6c-0.3,0.6-0.6,1.3-0.7,2.1c-0.2,0.8-0.3,1.5-0.3,2.3c-0.1,0.8-0.1,1.5-0.1,2.2
						c0,0.7,0.1,1.3,0.1,1.7c0.1,0.7,0.2,1.4,0.4,2.1c0.2,0.7,0.5,1.4,0.9,2c0.4,0.6,0.9,1.1,1.6,1.4c0.6,0.4,1.4,0.5,2.4,0.4
						c0.9-0.1,1.9-0.5,3-1.1c1.1-0.7,2.1-1.5,3.1-2.5c1-1,2-2,2.9-3.1c0.9-1.1,1.7-2.2,2.3-3.2l2.3,3.1c-1.2,2.2-2.6,4.2-4.1,5.9
						c-0.6,0.8-1.3,1.5-2.1,2.2c-0.8,0.7-1.6,1.4-2.4,2c-0.9,0.6-1.8,1.1-2.7,1.5C124,60.9,123,61.1,122,61.2z"/>
				</g>
				<g>
					<path fill="#306bac" d="M149.8,36.9c0.7,1.1,1.2,2.2,1.6,3.4c0.4,1.2,0.6,2.4,0.8,3.5c0.1,1.1,0.1,2.3,0,3.4
						c-0.1,1.2-0.4,2.3-0.8,3.4c-0.4,1.1-0.8,2.2-1.4,3.2c-0.6,1-1.3,1.9-2.1,2.7c-0.8,0.8-1.7,1.4-2.7,1.9c-1,0.5-2.1,0.8-3.2,0.9
						c-1.7,0.2-3.2-0.1-4.4-0.7c-1.3-0.6-2.3-1.5-3.2-2.6c-0.9-1.1-1.6-2.4-2.1-3.9c-0.5-1.5-0.8-3-1-4.5c-0.2-2.1-0.1-4.1,0.4-6
						c0.5-1.9,1.2-3.6,2.3-5s2.4-2.7,4-3.6c1.6-0.9,3.5-1.5,5.6-1.7c1.8-0.2,3.5-0.1,5.2,0.4c1.6,0.4,3.2,1,4.7,1.8
						c1.5,0.8,2.9,1.8,4.2,2.9c1.3,1.1,2.5,2.3,3.7,3.5l-0.2,4.1c-0.6-0.6-1.4-1.3-2.3-2c-1-0.7-2-1.4-3-2.1
						c-1.1-0.7-2.1-1.3-3.1-1.9c-1-0.6-1.9-1.1-2.6-1.5L149.8,36.9z M142.5,53.7c0.7-0.1,1.3-0.5,1.8-1.2c0.6-0.7,1-1.6,1.4-2.6
						c0.4-1,0.6-2.2,0.8-3.4c0.2-1.2,0.2-2.4,0.1-3.5c-0.1-0.9-0.2-1.7-0.4-2.4c-0.2-0.7-0.5-1.4-0.8-1.9c-0.3-0.5-0.7-0.9-1.2-1.2
						c-0.5-0.3-1-0.4-1.6-0.3c-0.8,0.1-1.5,0.5-2.1,1.2c-0.6,0.7-1.2,1.7-1.6,2.7c-0.4,1.1-0.7,2.3-0.9,3.6
						c-0.2,1.3-0.2,2.5-0.1,3.7c0.1,0.8,0.2,1.6,0.4,2.2c0.2,0.7,0.5,1.3,0.9,1.8c0.4,0.5,0.8,0.9,1.4,1.1
						C141.1,53.7,141.8,53.8,142.5,53.7z"/>
				</g>
				<g>
					<path fill="#306bac" d="M191.2,48.9c-1.3,1.2-2.5,2.2-3.8,3.2c-0.5,0.4-1.1,0.8-1.7,1.2c-0.6,0.4-1.2,0.7-1.7,1.1
						c-0.6,0.3-1.1,0.6-1.7,0.8c-0.5,0.2-1.1,0.3-1.5,0.4c-0.3,0-0.7,0-1.2-0.1c-0.5-0.1-1.1-0.2-1.8-0.5c-0.7-0.3-1.3-0.7-2-1.4
						c-0.7-0.6-1.3-1.4-1.9-2.5c-0.6,0.8-1.3,1.5-2.1,2.2c-0.7,0.7-1.5,1.3-2.3,1.9c-0.8,0.5-1.6,1-2.5,1.4
						c-0.8,0.4-1.7,0.6-2.6,0.7c-1.2,0.1-2.3,0-3.3-0.5c-1-0.4-1.8-1.1-2.5-1.9c-0.7-0.8-1.2-1.8-1.6-2.9c-0.4-1.1-0.7-2.3-0.8-3.5
						c-0.1-1.2-0.1-2.5,0.1-3.8c0.2-1.3,0.5-2.5,1-3.8c0.5-1.2,1.1-2.4,1.9-3.5c0.8-1.1,1.6-2.1,2.7-3.1c1-0.9,2.1-1.7,3.4-2.4
						c1.2-0.7,2.6-1.1,4-1.4c-0.2-2.5-0.2-4.9,0-7.3c0.2-2.4,0.4-4.8,0.9-7c0.4-2.2,1-4.3,1.7-6.2c0.7-1.9,1.5-3.6,2.3-5
						c0.9-1.4,1.9-2.6,2.9-3.5c1.1-0.9,2.2-1.4,3.4-1.5c0.9-0.1,1.7,0.1,2.4,0.5c0.7,0.4,1.2,1,1.7,1.7c0.5,0.7,0.8,1.6,1.1,2.6
						c0.3,1,0.5,2.1,0.6,3.1c0.1,0.7,0.1,1.4,0.1,2.1c0,2.7-0.2,5.3-0.6,7.8c-0.4,2.5-1,4.9-1.7,7.2c-0.7,2.4-1.4,4.7-2.3,7.1
						c-0.8,2.3-1.6,4.8-2.4,7.3c-0.1,0.3-0.1,0.6-0.2,1c-0.1,0.4-0.1,0.8-0.2,1.3c0,0.5-0.1,0.9-0.1,1.4c0,0.5,0,0.9,0,1.4
						c0.1,0.6,0.1,1.1,0.2,1.6c0.1,0.5,0.3,0.9,0.5,1.3c0.2,0.4,0.4,0.7,0.7,0.9c0.3,0.2,0.6,0.3,1,0.3c0.4,0,0.8-0.1,1.2-0.3
						c0.4-0.2,0.9-0.4,1.3-0.7c0.5-0.3,0.9-0.6,1.4-1c0.5-0.4,0.9-0.7,1.3-1.1c1-0.9,2-1.8,3.1-2.9L191.2,48.9z M169.9,34.7
						c-1.2,0.7-2.2,1.6-3.1,2.7c-0.9,1.1-1.6,2.3-2.2,3.5c-0.5,1.2-0.9,2.5-1.2,3.7c-0.2,1.2-0.3,2.3-0.2,3.3c0,0.4,0.1,0.8,0.2,1.1
						c0.1,0.4,0.3,0.7,0.6,1c0.3,0.3,0.6,0.5,1,0.7c0.4,0.2,1,0.2,1.7,0.1c0.3,0,0.7-0.2,1-0.4c0.3-0.2,0.6-0.5,0.9-0.8
						c0.3-0.3,0.5-0.7,0.8-1c0.2-0.4,0.5-0.8,0.7-1.2c0.5-0.9,0.8-2,1.2-3.1c-0.1-0.3-0.2-0.7-0.3-1.3c-0.1-0.6-0.2-1.2-0.3-1.9
						c-0.1-0.7-0.2-1.5-0.3-2.2c-0.1-0.8-0.2-1.5-0.2-2.1c-0.1-0.6-0.1-1.1-0.2-1.5C169.9,34.9,169.9,34.7,169.9,34.7z M181.4,12.7
						c0-1.3-0.1-2.4-0.1-3.2c-0.1-1-0.3-1.7-0.5-2.1c-0.2-0.4-0.5-0.6-0.8-0.5c-0.6,0.1-1.1,0.5-1.6,1.3c-0.4,0.8-0.8,1.9-1,3.1
						c-0.3,1.2-0.5,2.6-0.6,4.1c-0.1,1.5-0.3,2.9-0.3,4.3c-0.1,1.4-0.1,2.6-0.1,3.7c0,1.1,0,1.9,0,2.3c0,0.9,0,1.9,0.1,2.7
						c0,0.9,0.1,1.7,0.1,2.4c0,0.7,0.1,1.3,0.2,1.9c0.1,0.5,0.1,0.9,0.1,1.2l0,0.3c0.9-2.6,1.6-5.2,2.3-7.7c0.3-1.1,0.6-2.2,0.8-3.4
						c0.3-1.2,0.5-2.4,0.7-3.6c0.2-1.2,0.4-2.4,0.5-3.5C181.3,14.8,181.4,13.7,181.4,12.7z"/>
				</g>
				<g>
					<path fill="#306bac" d="M199.8,53.8c-1.8,0.2-3.4,0-4.8-0.5c-1.4-0.5-2.6-1.3-3.6-2.3s-1.8-2.2-2.4-3.6s-1-2.9-1.1-4.5
						c-0.1-1.1-0.1-2.2,0-3.4c0.1-1.2,0.3-2.4,0.6-3.6c0.3-1.2,0.8-2.3,1.3-3.4c0.6-1.1,1.2-2.1,2-3c0.8-0.9,1.7-1.6,2.7-2.2
						c1-0.6,2.2-0.9,3.5-1c1.1-0.1,2.1,0,3,0.2c1,0.3,1.8,0.7,2.5,1.2c0.7,0.6,1.3,1.3,1.8,2.1c0.5,0.8,0.8,1.8,0.9,2.9
						c0.1,1.2-0.1,2.4-0.5,3.6c-0.5,1.2-1.2,2.4-2.1,3.6c-0.9,1.2-2.1,2.2-3.4,3.2c-1.3,1-2.8,1.7-4.5,2.4c0.3,0.5,0.7,0.9,1,1.2
						c0.3,0.3,0.6,0.6,0.9,0.7c0.3,0.2,0.6,0.3,0.9,0.3c0.3,0,0.7,0.1,1,0c1.1-0.1,2.3-0.5,3.6-1c1.2-0.6,2.4-1.3,3.6-2.1
						c1.1-0.8,2.2-1.7,3.2-2.6c1-0.9,1.8-1.8,2.5-2.6l4.1,3.5c-1.5,1.9-3.2,3.6-4.9,5.1c-0.8,0.7-1.6,1.3-2.5,1.9
						c-0.9,0.6-1.8,1.2-2.8,1.8c-1,0.5-2.1,1-3.1,1.3C202.1,53.4,200.9,53.7,199.8,53.8z M194.7,40.7c0.7-0.1,1.4-0.3,2.2-0.7
						c0.8-0.4,1.5-1,2.1-1.6c0.6-0.6,1.2-1.3,1.6-2c0.4-0.7,0.6-1.4,0.5-2c-0.1-0.9-0.3-1.6-0.7-2.1c-0.4-0.5-0.8-0.8-1.2-0.7
						c-0.8,0.1-1.5,0.3-2.1,0.7c-0.6,0.4-1,0.8-1.4,1.3c-0.3,0.5-0.6,1.1-0.8,1.8c-0.2,0.6-0.3,1.3-0.4,1.9
						c-0.1,0.6-0.1,1.3-0.1,1.9C194.6,39.7,194.7,40.2,194.7,40.7z"/>
				</g>
			</g>
			<g>
				<g>
					<path fill="#306bac" d="M71.3,89.6c0.2,1.2,0.8,2.3,1.7,3.1c0.9,0.9,2,1.6,3.4,2.2c1.4,0.6,2.9,1.2,4.5,1.7
						c1.7,0.5,3.4,1,5.1,1.5c1.7,0.5,3.5,1.1,5.1,1.7c1.7,0.6,3.2,1.4,4.6,2.4c1.4,0.9,2.6,2.1,3.6,3.4c1,1.3,1.7,2.9,2,4.8
						c0.3,1.7,0.3,3.3,0,4.8c-0.3,1.5-0.8,2.9-1.6,4.3c-0.8,1.3-1.7,2.5-2.8,3.6c-1.1,1.1-2.4,2.1-3.8,2.9c-1.4,0.8-2.9,1.6-4.5,2.2
						c-1.6,0.6-3.3,1-4.9,1.3c-2.4,0.4-4.7,0.6-7.1,0.4c-2.3-0.2-4.5-0.7-6.4-1.5c-1.9-0.8-3.6-2.1-5-3.6c-1.4-1.6-2.3-3.5-2.7-5.9
						c-0.2-1.2-0.2-2.3,0-3.3c0.2-1,0.6-1.8,1-2.6c0.5-0.7,1-1.3,1.6-1.7c0.6-0.4,1.2-0.7,1.8-0.8c0.6-0.1,1.1,0,1.6,0.2
						c0.5,0.3,0.8,0.7,0.9,1.4c0.1,0.3,0.1,0.7,0.1,1c0,0.4,0,0.8,0,1.2c0,0.4,0,0.9,0,1.4c0,0.5,0.1,1.1,0.2,1.7
						c0.2,1.3,0.7,2.4,1.5,3.3c0.8,0.9,1.7,1.5,2.8,1.9c1.1,0.4,2.4,0.7,3.7,0.8c1.4,0.1,2.7,0,4.1-0.3c1.6-0.3,3.3-0.8,4.8-1.5
						c1.6-0.7,2.9-1.5,4.1-2.6s2.1-2.2,2.7-3.4c0.6-1.3,0.8-2.6,0.5-4.1c-0.2-1.3-0.8-2.5-1.7-3.4c-0.9-0.9-2.1-1.7-3.4-2.4
						c-1.4-0.7-2.9-1.3-4.6-1.8c-1.7-0.5-3.4-1-5.1-1.6c-1.7-0.5-3.5-1.1-5.1-1.7c-1.7-0.6-3.2-1.4-4.6-2.2
						c-1.4-0.9-2.6-1.9-3.5-3.1c-1-1.2-1.6-2.7-1.9-4.4c-0.3-1.6-0.2-3.2,0.3-4.9c0.5-1.7,1.4-3.3,2.7-4.8c1.3-1.5,3.1-2.8,5.2-4
						c2.2-1.2,4.8-2,7.9-2.6c2-0.4,3.9-0.4,5.9-0.2c2,0.2,3.8,0.8,5.5,1.6c1.7,0.8,3.1,1.9,4.3,3.2c1.2,1.3,1.9,2.9,2.2,4.7
						c0.2,1.1,0.2,2.2,0,3.4c-0.2,1.2-0.5,2.5-1.1,3.9c-0.6,1.3-1.3,2.4-2.1,3.1s-1.6,1.2-2.4,1.3c-0.6,0.1-1.1,0-1.5-0.2
						c-0.4-0.3-0.7-0.7-0.8-1.4c-0.1-0.5-0.1-1.1,0-1.8c0.1-0.7,0.4-1.6,0.7-2.5c0.4-0.9,0.6-1.8,0.7-2.5c0.1-0.8,0.1-1.5,0-2.1
						c-0.2-1-0.6-1.8-1.2-2.4c-0.7-0.6-1.5-1.1-2.5-1.4c-1-0.3-2.2-0.5-3.5-0.5c-1.3,0-2.8,0.1-4.3,0.4c-1.7,0.3-3.1,0.8-4.3,1.4
						c-1.2,0.6-2.1,1.3-2.9,2.1c-0.7,0.8-1.2,1.6-1.5,2.4C71.2,88,71.1,88.8,71.3,89.6z"/>
				</g>
				<g>
					<path fill="#306bac" d="M118.5,119.5c-1.8,0.3-3.4,0.3-4.8-0.1c-1.4-0.4-2.7-1.1-3.8-2c-1.1-0.9-2-2.1-2.7-3.4
						c-0.7-1.3-1.2-2.8-1.5-4.4c-0.2-1.1-0.3-2.2-0.3-3.4c0-1.2,0.1-2.4,0.3-3.6c0.2-1.2,0.6-2.4,1-3.5c0.5-1.1,1-2.2,1.8-3.1
						c0.7-0.9,1.6-1.7,2.6-2.4c1-0.7,2.1-1.1,3.4-1.3c1.1-0.2,2.1-0.2,3,0c1,0.2,1.8,0.5,2.6,1c0.8,0.5,1.4,1.1,2,1.9
						c0.5,0.8,0.9,1.7,1.1,2.8c0.2,1.2,0.1,2.4-0.2,3.7c-0.4,1.3-1,2.5-1.8,3.8c-0.8,1.2-1.9,2.4-3.1,3.4c-1.3,1.1-2.7,2-4.2,2.7
						c0.4,0.5,0.7,0.8,1.1,1.1c0.3,0.3,0.7,0.5,1,0.6c0.3,0.1,0.6,0.2,1,0.2c0.3,0,0.7,0,1-0.1c1.1-0.2,2.3-0.6,3.5-1.3
						c1.2-0.7,2.3-1.5,3.4-2.4c1.1-0.9,2.1-1.8,3-2.8c0.9-1,1.7-1.9,2.3-2.8l4.3,3.1c-1.4,2-2.8,3.9-4.5,5.5
						c-0.7,0.7-1.5,1.4-2.3,2.1c-0.8,0.7-1.7,1.4-2.7,2c-1,0.6-2,1.1-3,1.6C120.7,118.9,119.6,119.3,118.5,119.5z M112.3,106.8
						c0.7-0.1,1.4-0.4,2.1-0.9c0.7-0.5,1.4-1.1,2-1.8c0.6-0.7,1.1-1.4,1.4-2.1c0.4-0.7,0.5-1.4,0.4-2c-0.2-0.8-0.4-1.5-0.8-2
						c-0.4-0.5-0.8-0.7-1.3-0.6c-0.8,0.1-1.5,0.4-2,0.8c-0.5,0.4-0.9,0.9-1.2,1.4c-0.3,0.6-0.5,1.2-0.6,1.8c-0.1,0.7-0.2,1.3-0.2,2
						c0,0.6,0,1.3,0.1,1.9C112.2,105.9,112.2,106.4,112.3,106.8z"/>
				</g>
				<g>
					<path fill="#306bac" d="M128.4,106.4c0.9-1.1,1.6-2,2.2-2.7c0.6-0.7,1-1.4,1.4-2c0.4-0.6,0.7-1.2,1-1.8c0.3-0.6,0.6-1.3,1-2.1
						c0.4-0.8,0.9-1.8,1.5-2.9c0.6-1.1,1.3-2.6,2.3-4.3c0.2-0.4,0.4-0.8,0.6-1.1c0.2-0.4,0.5-0.7,0.9-1c0.3-0.3,0.7-0.6,1.1-0.8
						c0.4-0.2,0.9-0.4,1.4-0.5c0.9-0.2,1.6-0.2,2.2-0.1c0.5,0.1,0.9,0.3,1.2,0.5c0.3,0.2,0.5,0.5,0.6,0.8c0.1,0.3,0.2,0.6,0.2,0.8
						c0.1,0.5,0,1-0.3,1.6c-0.3,0.6-0.6,1.2-0.9,1.8c-0.3,0.6-0.7,1.1-1,1.6c-0.3,0.5-0.5,0.9-0.5,1.1c0.1,0.6,0.2,1.1,0.4,1.6
						c0.2,0.5,0.4,0.9,0.6,1.4c0.2,0.4,0.5,0.9,0.7,1.4c0.2,0.5,0.5,1.1,0.8,1.7c0.3,0.7,0.5,1.4,0.8,2.3c0.2,0.9,0.5,1.9,0.7,3.1
						c0.6-0.6,1.3-1.1,2-1.6c0.7-0.5,1.5-1,2.2-1.6c0.8-0.6,1.6-1.1,2.4-1.8c0.8-0.6,1.6-1.4,2.4-2.2l1.2,6.3
						c-1,1.1-2.2,2.2-3.6,3.3c-1.4,1.1-2.9,2.1-4.5,3c-1.6,0.9-3.2,1.7-4.9,2.4c-1.7,0.7-3.3,1.1-4.8,1.4c-1.1,0.2-2.2,0.3-3.2,0.3
						c-1,0-1.9-0.2-2.7-0.5c-0.8-0.3-1.5-0.8-2.1-1.4c-0.6-0.6-1-1.5-1.3-2.5c-0.3,0.1-0.5,0.2-0.8,0.3c-0.3,0.1-0.5,0.1-0.7,0.2
						c-0.3,0.1-0.6,0.1-0.9,0.1c-0.3,0-0.5,0-0.7-0.1c-0.2-0.1-0.4-0.3-0.6-0.5c-0.2-0.3-0.3-0.6-0.4-1.1c-0.1-0.5,0-0.9,0.1-1.3
						c0.2-0.4,0.4-0.8,0.6-1.2c0.2-0.4,0.5-0.7,0.8-1C128,106.8,128.2,106.6,128.4,106.4z M132.6,109.4c0.2,0,0.5,0.1,0.8,0.3
						c0.3,0.2,0.7,0.5,1.1,0.8c0.4,0.3,0.9,0.5,1.4,0.7c0.5,0.2,1.1,0.2,1.7,0.1c0.7-0.1,1.3-0.4,1.8-0.7c0.4-0.3,0.8-0.7,1-1.2
						c0.2-0.5,0.3-1,0.3-1.5c0-0.6,0-1.1-0.1-1.7c-0.1-0.5-0.2-1-0.4-1.5c-0.2-0.5-0.3-1-0.5-1.5c-0.2-0.5-0.4-0.9-0.6-1.3
						c-0.2-0.4-0.4-0.7-0.5-1L132.6,109.4z"/>
				</g>
				<g>
					<path fill="#306bac" d="M152.9,102c0.9-1.1,1.6-2,2.2-2.7c0.6-0.7,1-1.4,1.4-2c0.4-0.6,0.7-1.2,1-1.8c0.3-0.6,0.6-1.3,1-2.1
						c0.4-0.8,0.9-1.8,1.5-2.9c0.6-1.1,1.3-2.6,2.3-4.3c0.2-0.4,0.4-0.8,0.6-1.1c0.2-0.4,0.5-0.7,0.9-1c0.3-0.3,0.7-0.6,1.1-0.8
						c0.4-0.2,0.9-0.4,1.4-0.5c0.9-0.2,1.6-0.2,2.2-0.1c0.5,0.1,0.9,0.3,1.2,0.5c0.3,0.2,0.5,0.5,0.6,0.8c0.1,0.3,0.2,0.6,0.2,0.8
						c0.1,0.5,0,1-0.3,1.6c-0.3,0.6-0.6,1.2-0.9,1.8c-0.3,0.6-0.7,1.1-1,1.6c-0.3,0.5-0.5,0.9-0.5,1.1c0.1,0.6,0.2,1.1,0.4,1.6
						c0.2,0.5,0.4,0.9,0.6,1.4c0.2,0.4,0.5,0.9,0.7,1.4c0.2,0.5,0.5,1.1,0.8,1.7c0.3,0.7,0.5,1.4,0.8,2.3c0.2,0.9,0.5,1.9,0.7,3.1
						c0.6-0.6,1.3-1.1,2-1.6c0.7-0.5,1.5-1,2.2-1.6c0.8-0.6,1.6-1.1,2.4-1.8c0.8-0.6,1.6-1.4,2.4-2.2l1.2,6.3
						c-1,1.1-2.2,2.2-3.6,3.3c-1.4,1.1-2.9,2.1-4.5,3c-1.6,0.9-3.2,1.7-4.9,2.4c-1.7,0.7-3.3,1.1-4.8,1.4c-1.1,0.2-2.2,0.3-3.2,0.3
						c-1,0-1.9-0.2-2.7-0.5c-0.8-0.3-1.5-0.8-2.1-1.4c-0.6-0.6-1-1.5-1.3-2.5c-0.3,0.1-0.5,0.2-0.8,0.3c-0.3,0.1-0.5,0.1-0.7,0.2
						c-0.3,0.1-0.6,0.1-0.9,0.1c-0.3,0-0.5,0-0.7-0.1c-0.2-0.1-0.4-0.3-0.6-0.5c-0.2-0.3-0.3-0.6-0.4-1.1c-0.1-0.5,0-0.9,0.1-1.3
						c0.2-0.4,0.4-0.8,0.6-1.2c0.2-0.4,0.5-0.7,0.8-1C152.6,102.4,152.8,102.2,152.9,102z M157.2,105c0.2,0,0.5,0.1,0.8,0.3
						c0.3,0.2,0.7,0.5,1.1,0.8c0.4,0.3,0.9,0.5,1.4,0.7c0.5,0.2,1.1,0.2,1.7,0.1c0.7-0.1,1.3-0.4,1.8-0.7c0.4-0.3,0.8-0.7,1-1.2
						c0.2-0.5,0.3-1,0.3-1.5c0-0.6,0-1.1-0.1-1.7c-0.1-0.5-0.2-1-0.4-1.5c-0.2-0.5-0.3-1-0.5-1.5c-0.2-0.5-0.4-0.9-0.6-1.3
						c-0.2-0.4-0.4-0.7-0.5-1L157.2,105z"/>
				</g>
				<g>
					<path fill="#306bac" d="M196.5,99.1c-0.6,0.7-1.3,1.6-2.2,2.5c-0.9,0.9-1.9,1.7-2.9,2.5c-1.1,0.8-2.2,1.5-3.3,2.1
						c-1.1,0.6-2.3,1-3.4,1.2c-1,0.2-1.8,0.2-2.6,0c-0.7-0.2-1.3-0.4-1.8-0.9c-0.5-0.4-0.9-1-1.2-1.6c-0.3-0.7-0.5-1.4-0.7-2.3
						c-0.2-1.2-0.3-2.6-0.3-4.2c0-1.6,0-3.3,0.1-5.1c0.1-1.8,0.2-3.5,0.3-5.3c0.1-1.8,0.3-3.4,0.3-4.9c0-0.5,0.2-1,0.6-1.4
						c0.3-0.4,0.7-0.8,1.2-1.1c0.5-0.3,1-0.6,1.5-0.8c0.5-0.2,1-0.3,1.4-0.4c0.8-0.1,1.4-0.1,1.7,0.1c0.3,0.2,0.5,0.6,0.6,1.1
						c0.1,0.4,0.1,1,0,1.9c0,0.8-0.1,1.7-0.2,2.8c-0.1,1-0.2,2.2-0.3,3.4c-0.1,1.2-0.2,2.4-0.3,3.6c-0.1,1.2-0.1,2.4-0.1,3.5
						c0,1.1,0.1,2.1,0.2,3c0.2,0.9,0.4,1.5,0.7,2c0.3,0.5,0.7,0.6,1.3,0.5c0.7-0.1,1.4-0.5,2.1-1.1c0.7-0.6,1.5-1.3,2.2-2.2
						c0.7-0.8,1.4-1.7,2.1-2.5c0.7-0.9,1.3-1.6,1.8-2.2L196.5,99.1z M178.5,72.3c-0.1-0.4-0.1-0.9,0-1.5c0.1-0.6,0.3-1.2,0.6-1.7
						c0.3-0.6,0.8-1.1,1.5-1.5c0.6-0.5,1.5-0.8,2.6-1c0.7-0.1,1.3-0.2,1.9-0.1c0.6,0,1.2,0.2,1.7,0.4c0.5,0.2,0.9,0.6,1.3,1
						c0.3,0.5,0.6,1,0.7,1.7c0.1,0.6,0.1,1.3,0,1.9c-0.1,0.6-0.3,1.2-0.7,1.8c-0.4,0.6-0.9,1-1.5,1.5c-0.6,0.4-1.4,0.7-2.4,0.9
						c-1.7,0.3-3,0.1-3.9-0.5C179.3,74.5,178.7,73.6,178.5,72.3z"/>
				</g>
				<g>
					<path fill="#306bac" d="M209.1,81.1c0.7,1,1.4,2.1,1.9,3.3c0.5,1.2,0.8,2.3,1,3.4c0.2,1.1,0.3,2.3,0.2,3.4
						c0,1.2-0.2,2.3-0.5,3.5c-0.3,1.1-0.7,2.2-1.2,3.3c-0.5,1-1.1,2-1.9,2.8c-0.7,0.8-1.6,1.5-2.5,2.1c-0.9,0.6-2,1-3.2,1.2
						c-1.7,0.3-3.2,0.2-4.5-0.3c-1.3-0.5-2.5-1.3-3.4-2.3c-1-1-1.8-2.3-2.4-3.7c-0.6-1.4-1.1-2.9-1.3-4.4c-0.4-2.1-0.4-4.1-0.1-6
						c0.3-1.9,0.9-3.7,1.8-5.2c0.9-1.5,2.2-2.8,3.7-3.9c1.5-1.1,3.4-1.8,5.5-2.2c1.8-0.3,3.5-0.3,5.2-0.1c1.7,0.3,3.3,0.8,4.8,1.4
						c1.5,0.7,3,1.5,4.4,2.5c1.4,1,2.7,2,4,3.1l0.2,4.1c-0.6-0.6-1.5-1.2-2.5-1.8c-1-0.6-2.1-1.2-3.2-1.8c-1.1-0.6-2.2-1.1-3.3-1.6
						c-1.1-0.5-2-0.9-2.7-1.2L209.1,81.1z M203.2,98.5c0.6-0.1,1.2-0.6,1.7-1.3c0.5-0.8,0.9-1.7,1.1-2.8c0.3-1.1,0.4-2.2,0.5-3.5
						c0.1-1.3,0-2.4-0.2-3.5c-0.2-0.9-0.4-1.7-0.6-2.4c-0.3-0.7-0.6-1.3-0.9-1.8c-0.4-0.5-0.8-0.9-1.3-1.1c-0.5-0.2-1-0.3-1.6-0.2
						c-0.8,0.1-1.5,0.6-2,1.4c-0.6,0.8-1,1.7-1.4,2.9c-0.3,1.1-0.6,2.3-0.6,3.6c-0.1,1.3,0,2.5,0.2,3.7c0.1,0.8,0.4,1.5,0.6,2.2
						c0.3,0.7,0.6,1.2,1,1.7c0.4,0.5,0.9,0.8,1.5,1C201.8,98.6,202.5,98.7,203.2,98.5z"/>
				</g>
				<g>
					<path fill="#306bac" d="M219.2,95.1c-0.2-1.2-0.4-2.7-0.6-4.4c-0.1-1.7-0.3-3.4-0.3-5.1c-0.1-1.7-0.1-3.4-0.1-5
						c0-1.6,0-3,0.1-4.2c0.1-0.9,0.3-1.7,0.8-2.4c0.5-0.7,1.2-1.1,2.3-1.3c1-0.2,1.8,0,2.3,0.6c0.5,0.6,0.9,1.3,1,2.4
						c0.1,0.3,0.1,0.7,0.1,1.2c0,0.5,0.1,1,0.1,1.6c0,0.6,0,1.2,0.1,1.8c0,0.6,0,1.2,0,1.8c0,0.5,0,1,0,1.4c0,0.4,0,0.7,0.1,0.8
						l0.6-0.1c0.1-0.2,0.2-0.6,0.4-1.1c0.2-0.5,0.4-1.1,0.6-1.8c0.2-0.7,0.4-1.4,0.7-2.1c0.2-0.7,0.5-1.4,0.7-2.1
						c0.2-0.7,0.4-1.3,0.6-1.8c0.2-0.5,0.3-0.9,0.4-1.2c0.4-1.1,1-2,1.7-2.5c0.7-0.5,1.5-0.9,2.5-1c0.9-0.2,1.8,0.1,2.5,0.8
						c0.7,0.7,1.2,1.7,1.4,3.1c0,0.2,0.1,0.6,0.1,1.1c0,0.5,0,1.1,0,1.8s0,1.5,0,2.3c0,0.8,0,1.7,0,2.6c0,0.9,0.1,1.7,0.1,2.6
						c0.1,0.8,0.2,1.6,0.3,2.3c0.2,1.2,0.5,2.1,1,2.8c0.4,0.7,1,1,1.6,0.9c0.3-0.1,0.6-0.2,0.9-0.4c0.3-0.2,0.7-0.5,1.1-0.9
						c0.4-0.4,0.8-0.7,1.1-1.2c0.4-0.4,0.8-0.9,1.1-1.3c0.8-1.1,1.7-2.3,2.6-3.6l1.6,6.3l-1.2,1.3c-0.7,0.7-1.4,1.5-2.1,2.2
						c-0.7,0.7-1.4,1.4-2.2,2c-0.8,0.6-1.6,1.2-2.5,1.6c-0.9,0.5-1.9,0.8-2.9,1c-1,0.2-2.1-0.4-3-1.8c-1-1.4-1.7-3.5-2.3-6.4
						c-0.2-1.1-0.4-2.4-0.4-3.7c-0.1-1.3-0.2-2.8-0.2-4.3l-0.5,0.1l-4.8,16.1c-0.2,0.8-0.6,1.5-1,1.8c-0.4,0.4-0.9,0.6-1.6,0.7
						c-0.8,0.1-1.4,0.1-2-0.2c-0.5-0.2-1-0.6-1.3-1.1c-0.4-0.5-0.6-1.1-0.9-1.8C219.5,96.6,219.4,95.9,219.2,95.1z"/>
				</g>
				<g>
					<path fill="#306bac" d="M243.7,85.6c0.9-1.1,1.6-2,2.2-2.7c0.6-0.7,1-1.4,1.4-2c0.4-0.6,0.7-1.2,1-1.8c0.3-0.6,0.6-1.3,1-2.1
						c0.4-0.8,0.9-1.8,1.5-2.9c0.6-1.1,1.3-2.6,2.3-4.3c0.2-0.4,0.4-0.8,0.6-1.1c0.2-0.4,0.5-0.7,0.9-1c0.3-0.3,0.7-0.6,1.1-0.8
						c0.4-0.2,0.9-0.4,1.4-0.5c0.9-0.2,1.6-0.2,2.2-0.1c0.5,0.1,0.9,0.3,1.2,0.5c0.3,0.2,0.5,0.5,0.6,0.8c0.1,0.3,0.2,0.6,0.2,0.8
						c0.1,0.5,0,1-0.3,1.6c-0.3,0.6-0.6,1.2-0.9,1.8c-0.3,0.6-0.7,1.1-1,1.6c-0.3,0.5-0.5,0.9-0.5,1.1c0.1,0.6,0.2,1.1,0.4,1.6
						c0.2,0.5,0.4,0.9,0.6,1.4c0.2,0.4,0.5,0.9,0.7,1.4c0.2,0.5,0.5,1.1,0.8,1.7c0.3,0.7,0.5,1.4,0.8,2.3c0.2,0.9,0.5,1.9,0.7,3.1
						c0.6-0.6,1.3-1.1,2-1.6c0.7-0.5,1.5-1,2.2-1.6c0.8-0.6,1.6-1.1,2.4-1.8c0.8-0.6,1.6-1.4,2.4-2.2l1.2,6.4
						c-1,1.1-2.2,2.2-3.6,3.3c-1.4,1.1-2.9,2.1-4.5,3c-1.6,0.9-3.2,1.7-4.9,2.4c-1.7,0.7-3.3,1.1-4.8,1.4c-1.1,0.2-2.2,0.3-3.2,0.3
						c-1,0-1.9-0.2-2.7-0.5c-0.8-0.3-1.5-0.8-2.1-1.4c-0.6-0.6-1-1.5-1.3-2.5c-0.3,0.1-0.5,0.2-0.8,0.3c-0.3,0.1-0.5,0.1-0.7,0.2
						c-0.3,0.1-0.6,0.1-0.9,0.1c-0.3,0-0.5,0-0.7-0.1c-0.2-0.1-0.4-0.3-0.6-0.5c-0.2-0.3-0.3-0.6-0.4-1.1c-0.1-0.5,0-0.9,0.1-1.3
						c0.2-0.4,0.4-0.8,0.6-1.2c0.2-0.4,0.5-0.7,0.8-1C243.4,86,243.6,85.7,243.7,85.6z M248,88.6c0.2,0,0.5,0.1,0.8,0.3
						c0.3,0.2,0.7,0.5,1.1,0.8c0.4,0.3,0.9,0.5,1.4,0.7c0.5,0.2,1.1,0.2,1.7,0.1c0.7-0.1,1.3-0.4,1.8-0.7c0.4-0.3,0.8-0.7,1-1.2
						c0.2-0.5,0.3-1,0.3-1.5c0-0.6,0-1.1-0.1-1.7c-0.1-0.5-0.2-1-0.4-1.5c-0.2-0.5-0.3-1-0.5-1.5c-0.2-0.5-0.4-0.9-0.6-1.3
						c-0.2-0.4-0.4-0.7-0.5-1L248,88.6z"/>
				</g>
			</g>
		</g>
	</g>
</g>
</svg>
